tidytuesdayw2
…
Load Data

#Load tidy tuesday data from November 04 2025

tuesdata <- tidytuesdayR::tt_load('2025-11-11') #load data of the week

Tidy the Data

head(tuesdata)

$who_tb_data
# A tibble: 5,117 × 18
   country   g_whoregion iso_numeric iso2  iso3   year c_cdr c_newinc_100k   cfr
   <chr>     <chr>             <dbl> <chr> <chr> <dbl> <dbl>         <dbl> <dbl>
 1 Afghanis… Eastern Me…           4 AF    AFG    2000    19            35  0.37
 2 Afghanis… Eastern Me…           4 AF    AFG    2001    26            50  0.35
 3 Afghanis… Eastern Me…           4 AF    AFG    2002    34            65  0.31
 4 Afghanis… Eastern Me…           4 AF    AFG    2003    32            61  0.32
 5 Afghanis… Eastern Me…           4 AF    AFG    2004    41            78  0.28
 6 Afghanis… Eastern Me…           4 AF    AFG    2005    47            90  0.26
 7 Afghanis… Eastern Me…           4 AF    AFG    2006    53           100  0.24
 8 Afghanis… Eastern Me…           4 AF    AFG    2007    59           111  0.21
 9 Afghanis… Eastern Me…           4 AF    AFG    2008    56           107  0.22
10 Afghanis… Eastern Me…           4 AF    AFG    2009    50            95  0.25
# ℹ 5,107 more rows
# ℹ 9 more variables: e_inc_100k <dbl>, e_inc_num <dbl>, e_mort_100k <dbl>,
#   e_mort_exc_tbhiv_100k <dbl>, e_mort_exc_tbhiv_num <dbl>, e_mort_num <dbl>,
#   e_mort_tbhiv_100k <dbl>, e_mort_tbhiv_num <dbl>, e_pop_num <dbl>
…
